<?xml version="1.0" encoding="UTF-8"?>
<svg width="9px" height="16px" viewBox="0 0 9 16" version="1.1" xmlns="http://www.w3.org/2000/svg" xmlns:xlink="http://www.w3.org/1999/xlink">
    <!-- Generator: Sketch 47.1 (45422) - http://www.bohemiancoding.com/sketch -->
    <title>chevron-prev</title>
    <desc>Created with Sketch.</desc>
    <defs></defs>
    <g id="Page-1" stroke="none" stroke-width="1" fill="none" fill-rule="evenodd">
        <g id="chevron-prev" transform="translate(4.500000, 8.000000) rotate(180.000000) translate(-4.500000, -8.000000) " fill-rule="nonzero" fill="#888888">
            <polyline id="Shape" points="0.707031 0 0 0.707031 6.125 6.832031 7.292969 8 6.125 9.167969 0 15.292969 0.707031 16 6.832031 9.875 8.707031 8 6.832031 6.125 0.707031 0"></polyline>
        </g>
    </g>
</svg>
