{
	"office" : {
		"id": 1,
		"title" : "our leeadership",
		"address" : "",
		"city" : "",
		"postcode" : "",
		"phone" : "",
		"email" : "",
		"lat" : 0,
		"lng" : 0,
		"header" : "",
		"tail" : ""
	},
	"order" : {
		"all" : []
		},
	"people" : [
		{
			"name" : "David Ryan",
			"job" : "Business Development Manager, Divisional Director, Manchester",
			"filter" : "financial",
			"senior" : false,
			"phone" : "07795 665 861",
			"noemail" : "david.ryan@brewin.co.uk",
			"linkedin" : "https://uk.linkedin.com/",
			"pic" : "david-ryan.jpg",
			"bio" : "David joined Brewin Dolphin in March 2010, after spending 11 years with Zurich Financial Services in the Intermediary Group division. David works with intermediaries in Manchester, Liverpool and the North West. He has a Diploma in Regulated Financial Planning."
		},
		{
			"name" : "James Gadd",
			"job" : "Business Development Manager, Cardiff",
			"filter" : "investment",
			"senior" : false,
			"phone" : "07833 048452",
			"email" : "",
			"linkedin" : "https://uk.linkedin.com/",
			"pic" : "gadd-web.jpg",
			"bio" : "James has worked within the financial services industry in South Wales for over 15 years as both an IFA and primarily a BDM. James worked for both Standard Life and Metlife for 6 and 4 years respectively before joining Brewin Dolphin in 2013. James specialises in pensions and investments and works with intermediaries in South Wales. James is based out of the Brewin Dolphin Wales office in Cardiff."
		},
		{
			"name" : "Glen Read",
			"job" : "Business Development Manager, Divisional Director, London",
			"filter" : "investment",
			"senior" : true,
			"phone" : "07917 688 440",
			"email" : "glen.read@brewin.co.uk",
			"linkedin" : "https://uk.linkedin.com/",
			"pic" : "glen-read.jpg",
			"bio" : "Glen has spent over 25 years in the financial sector, including ten years in banking and ten years with Clerical Medical (seven of which were in the International division dealing with offshore investments and trusts). Glen worked at Tilney Investment Management for three years as a Business Development Director, before joining Brewin Dolphin in 2005. He has attained the Advanced Financial Planning Certificate."
		},
		{
			"name" : "Graeme Bowden",
			"job" : "Business Development Manager, Edinburgh",
			"filter" : "financial",
			"senior" : true,
			"phone" : "07880 087347",
			"email" : "graeme.bowden@brewin.co.uk",
			"linkedin" : "https://uk.linkedin.com/",
			"pic" : "graeme-bowden.jpg",
			"bio" : "Graeme joined Brewin Dolphin in 2015, having spent the previous 20 years working with financial advisers in Scotland. Of this 12 years were with AEGON where he specialised within the Wealth Management side of the business. He joined us from Seven Investment Management (7IM) where he worked with financial advisers help develop robust investment propositions using discretionary management services, model portfolio solutions and retail multi-asset funds. Graeme is qualified to Chartered Financial Planner status, and has the CFA Investment Management Certificate (Unit1). Graeme works with intermediaries throughout Scotland, and is based in our Edinburgh office."
		},
		{
			"name" : "Jason Williams",
			"job" : "Business Development Manager, Bristol",
			"filter" : "financial",
			"senior" : true,
			"phone" : "07766 725 268",
			"email" : "jason.williams@brewin.co.uk",
			"linkedin" : "https://uk.linkedin.com/",
			"pic" : "jason-williams.jpg",
			"bio" : "Jason started his career in financial services with Eagle Star Trust Company, which later became part of Zurich Financial Services. During his time there, Jason specialised in tax and trusts. His experience is working with IFAs, wealth managers, solicitors and accountants with investment, SIPP and tax/trust planning solutions. In 2011, he left Zurich to join Brewin Dolphin and now concentrates on providing solutions for intermediaries in the Cheltenham area."
		},
		{
			"name" : "Jon Gamble",
			"job" : "Business Development Manager, London",
			"filter" : "investment",
			"senior" : false,
			"phone" : "07788 364874",
			"email" : "Jonathan.Gamble@brewin.co.uk",
			"linkedin" : "https://uk.linkedin.com/",
			"pic" : "jon-gamble.jpg",
			"bio" : "Jonathan joins Brewin Dolphin having accumulated more than 25 years’ experience in Financial Services. He was previously at Close Brothers Asset Management and Cazenove Capital Management, and spent 17 years at Scottish Equitable across a variety of sales and investment roles. He holds the Investment Management Certificate, the Financial Planning Certificate and is a graduate of the University of Wales."
		},
		{
			"name" : "Lucie Gordon",
			"job" : "Senior Business Development Manager, Newcastle",
			"filter" : "financial",
			"senior" : true,
			"phone" : "0191 279 7325",
			"email" : "lucie.gordon@brewin.co.uk",
			"linkedin" : "https://uk.linkedin.com/",
			"pic" : "lucie-gordon.jpg",
			"bio" : "Lucie joined Brewin Dolphin in 2014 to develop business with intermediaries from the Borders to North Yorkshire and is based in our Newcastle office. After spending 16 years with Standard Life in Newcastle and Standard Life Investments in London, she brings a wealth of experience in investments, pensions, trust planning and platforms. Lucie is a Chartered Financial Planner."
		},
		{
			"name" : "Maxine Anderson",
			"job" : "Business Development Manager, Glasgow",
			"filter" : "financial",
			"senior" : true,
			"phone" : "07901 977 929",
			"email" : "maxine.anderson@brewin.co.uk",
			"linkedin" : "https://uk.linkedin.com/",
			"pic" : "maxine-anderson.jpg",
			"bio" : "Maxine has worked in the financial sector since 1995 and spent the first 12 years in the banking industry. In 2005, she joined RBSG Wealth Management Division as a Relationship Director for Adam &amp; Company. In 2007 she changed roles to Business Development Manager for Adam &amp; Company Discretionary Investment Management before joining Brewin Dolphin in January 2011. Maxine works with professional intermediaries in Scotland."
		},
		{
			"name" : "Michael McQuade",
			"job" : "Business Development Manager, Divisional Director, Belfast",
			"filter" : "financial",
			"senior" : false,
			"phone" : "07802 894 468",
			"email" : "michael.mcquade@brewin.co.uk",
			"linkedin" : "https://uk.linkedin.com/",
			"pic" : "michael-mcquade.jpg",
			"bio" : "Michael joined Brewin Dolphin in April 2006 after a career spanning 34 years within the investment division of Bank of Ireland. He was a Board Director of Bank of Ireland Trustee Company Limited and also Head of Investment Management Services within the bank. He is responsible for business development and managing professional client relationships in Northern Ireland."
		},
		{
			"name" : "Owen Woolfitt",
			"job" : "Business Development Manager, Leeds",
			"filter" : "financial",
			"senior" : false,
			"phone" : "07920 801 390",
			"email" : "owen.woolfitt@brewin.co.uk",
			"linkedin" : "https://uk.linkedin.com/",
			"pic" : "owen-woolfitt.jpg",
			"bio" : "Owen has more than 17 years’ experience working in financial services, with eight years at Royal and SunAlliance as a broker consultant, before moving into discretionary investment management with Morgan Stanley Quilter and SP Angel. Owen joined Brewin Dolphin in 2007 and covers Yorkshire and Humberside. He is studying towards the Diploma in Regulated Financial Planning."
		},
		{
			"name" : "Philip Thitchener",
			"job" : "Business Development Manager for the South West",
			"filter" : "financial",
			"senior" : false,
			"phone" : "07920190683",
			"email" : "philip.thitchener@brewin.co.uk",
			"linkedin" : "https://uk.linkedin.com/",
			"pic" : "p-titchener-new.jpg",
			"bio" : "Philip joined Brewin Dolphin, in June 2016, to manage the Intermediary Business Development function in the South West region, working out of Brewin’s Exeter and Plymouth based offices. Philip brings with him a wealth of high level experience in both the intermediary business channel and in developing and promoting investment solutions for IFAs, which he has been involved in for the majority of his career. Philip’s strong reputation in these areas has been built up during his time leading the pensions investment product team at Friends Life and working for Bristol based DFM Whitehouse Securities, as well as almost ten years spent working at JP Morgan Asset Management. During his time there, he worked as the Executive Director responsible for intermediated sales in South West England, South Wales and the Channel Islands, developing a fantastic reputation within the intermediary space, which will play a key part in his role at Brewin."
		},
		{
			"name" : "Paul Cox",
			"job" : "Business Development Manager, Birmingham",
			"filter" : "investment",
			"senior" : false,
			"phone" : "07768 164 067",
			"email" : "paul.cox@brewin.co.uk",
			"linkedin" : "https://uk.linkedin.com/",
			"pic" : "paul-cox.jpg",
			"bio" : "Paul Cox started his financial services career in 1989, building relationships with intermediaries within the Midlands area. He has a wealth of experience in the pension and offshore market, having previously worked at NPI, Merchant Investors and Scottish Widows. During the last six years, Paul has worked with discretionary fund managers promoting their services to the intermediary sector and is now based in the Birmingham office of Brewin Dolphin."
		},
		{
			"name" : "Paul Jackson",
			"job" : "Business Development Manager, Nottingham",
			"filter" : "financial",
			"senior" : true,
			"phone" : "07500 797 776",
			"email" : "paul.jackson@brewin.co.uk",
			"linkedin" : "https://uk.linkedin.com/",
			"pic" : "paul-jackson.jpg",
			"bio" : "Paul began his career at Sun Alliance aged 18, and four years later moved to Scottish Provident as a broker consultant in the Leicestershire area. Paul stayed with Scottish Provident for nine years, the last three of which he was Pensioneer Trustee for its SSAS business. For the last 19 years he has worked for discretionary fund managers in the East Midlands area. He joined Brewin Dolphin’s Nottingham office in 2008. Paul has attained the Dip PFS and ACII and is a chartered insurer."
		},
		{
			"name" : "Ross Slater",
			"job" : "Business Development Manager, East Anglia, Essex and Hertfordshire, Ipswich",
			"filter" : "investment",
			"senior" : false,
			"phone" : "07920 590425",
			"email" : "ross.slater@brewin.co.uk",
			"linkedin" : "https://uk.linkedin.com/",
			"pic" : "ross-slater.jpg",
			"bio" : "Ross has 17 years experience in the financial services industry. &nbsp;He started his career with the Friends Provident on the graduate trainee scheme and has held intermediary sales positions with Liverpool Victoria, where he was part of a team that launched the proposition into the IFA market for the first time in its history and Zurich as platform development consultant. Ross has extensive experience in trust planning, pensions and wrap platforms. Ross joined Brewin Dolphin in June 2014 and is a Chartered Financial Planner and a Fellow of the CII. His role is to develop working partnerships with Intermediary’s who are looking to outsource their investment business."
		},
		{
			"name" : "Tanya Slater",
			"job" : "Business Development Manager, London",
			"filter" : "financial",
			"senior" : false,
			"phone" : "07780 229137",
			"email" : "tanya.slater@brewin.co.uk",
			"linkedin" : "https://uk.linkedin.com/",
			"pic" : "tanya-slater.jpg",
			"bio" : "Tanya has spent over 12 years in the financial sector, with almost seven years spent at Aviva before joining Brewin Dolphin in 2013. Tanya has a wealth of experience in pensions, investments and platforms. She has developed strong relationships with intermediaries within London and the South East."
		}
	]
}